{
  "categories": [
    {
      "name": "General",
      "icon": "\ue8b8",
      "key": "main",
      "settings": [
        {
          "name": "Confirm application exit",
          "tooltip": "Enable this option to get a confirmation message when you leave MellowPlayer.",
          "type": "bool",
          "default": true,
          "key": "confirm-exit"
        },
        {
          "name": "Close application to system tray",
          "tooltip": "Enable this option to close the application in the system tray and continue listening to your musing in background.",
          "type": "bool",
          "default": true,
          "key": "close-to-tray"
        },
        {
          "name": "Check for updates",
          "tooltip": "Automatically check for updates",
          "type": "bool",
          "default": true,
          "key": "check-for-updates"
        },
        {
          "name": "Update channel",
          "tooltip": "Choose which update channel to use",
          "type": "update-channel",
          "default": 0,
          "key": "update-channel",
          "enabled": "main/check-for-updates"
        },
        {
          "name": "Playback requires user gesture",
          "tooltip": "Inhibits playback of media content until the user interacts with the page.",
          "type": "bool",
          "default": false,
          "key": "playback-requires-user-gesture",
          "enabled": "qtVersion >= 5.11"
        }
      ]
    },
    {
      "name": "Appearance",
      "icon": "\ue40a",
      "key": "appearance",
      "settings": [
        {
          "name": "Show system tray icon",
          "tooltip": "Disable this option to hide the system tray icon",
          "type": "bool",
          "default": true,
          "key": "show-tray-icon",
          "enabled": "main/close-to-tray"
        },
        {
          "name": "Custom tray icon",
          "tooltip": "Use a custom icon for the system tray",
          "type": "icon",
          "default": "",
          "key": "custom-tray-icon",
          "enabled": "appearance/show-tray-icon"
        },
        {
          "name": "Show web page scrollbars",
          "tooltip": "Show/Hide web page scrollbars",
          "type": "bool",
          "default": true,
          "key": "show-scrollbars",
          "enabled": "qtVersion >= 5.10"
        },
        {
          "name": "Automatic HiDPI scaling",
          "tooltip": "Automatic HiDPI scaling. Require a restart of the application.",
          "type": "bool",
          "default": true,
          "key": "auto-hidpi-scaling"
        },
        {
          "name": "HiDPI scaling factor",
          "tooltip": "HiDPI scaling factor. Require a restart of the application.",
          "type": "scaling-factor",
          "default": "100",
          "key": "hidpi-scaling-factor",
          "enabled": "!appearance/auto-hidpi-scaling"
        },
        {
          "name": "Show main tool bar",
          "tooltip": "Show/Hide main toolbar",
          "type": "bool",
          "default": true,
          "key": "toolbar-visible"
        },
        {
          "name": "\tShow web page controls in main tool bar",
          "tooltip": "Show/Hide web page controls in main toolbar",
          "type": "bool",
          "default": true,
          "key": "webpage-controls-visible",
          "enabled": "appearance/toolbar-visible"
        },
        {
          "name": "\tShow player controls in main tool bar",
          "tooltip": "Show/Hide player controls in main toolbar",
          "type": "bool",
          "default": true,
          "key": "player-controls-visible",
          "enabled": "appearance/toolbar-visible"
        },
        {
          "name": "Theme",
          "tooltip": "Application theme",
          "type": "theme",
          "default": "@DEFAULT_THEME@",
          "key": "theme"
        },
        {
          "name": "Accent",
          "tooltip": "Change material accent color",
          "type": "color",
          "default": "#ffc107",
          "key": "accent",
          "enabled": "appearance/theme == Custom"
        },
        {
          "name": "Background",
          "tooltip": "Change material background color",
          "type": "color",
          "default": "#ffffff",
          "key": "background",
          "enabled": "appearance/theme == Custom"
        },
        {
          "name": "Foreground",
          "tooltip": "Change material foreground color",
          "type": "color",
          "default": "#505050",
          "key": "foreground",
          "enabled": "appearance/theme == Custom"
        },
        {
          "name": "Primary Background",
          "tooltip": "Change material primary background color",
          "type": "color",
          "default": "#5f81d4",
          "key": "primary-background",
          "enabled": "appearance/theme == Custom"
        },
        {
          "name": "Primary Foreground",
          "tooltip": "Change material primary foreground color",
          "type": "color",
          "default": "#ffffff",
          "key": "primary-foreground",
          "enabled": "appearance/theme == Custom"
        },
        {
          "name": "Secondary Background",
          "tooltip": "Change material secondary background color",
          "type": "color",
          "default": "#5f81d4",
          "key": "secondary-background",
          "enabled": "appearance/theme == Custom"
        },
        {
          "name": "Secondary Foreground",
          "tooltip": "Change material secondary foreground color",
          "type": "color",
          "default": "#ffffff",
          "key": "secondary-foreground",
          "enabled": "appearance/theme == Custom"
        }
      ]
    },
    {
      "name": "Notifications",
      "icon": "\ue7f4",
      "key": "notifications",
      "settings": [
        {
          "name": "Enable notifications",
          "tooltip": "Enable or disable notifications",
          "type": "bool",
          "default": true,
          "key": "enabled"
        },
        {
          "name": "Display a notification when a new song starts playing",
          "tooltip": "Enabled/Disable displaying a notification when a new song starts playing",
          "type": "bool",
          "default": true,
          "key": "new-song",
          "enabled": "notifications/enabled"
        },
        {
          "name": "Display a notification when player has paused",
          "tooltip": "Enabled/Disable displaying a notification when the player has paused",
          "type": "bool",
          "default": false,
          "key": "paused",
          "enabled": "notifications/enabled"
        },
        {
          "name": "Display a notification when player has resumed",
          "tooltip": "Enabled/Disable displaying a notification when the player has resumed",
          "type": "bool",
          "default": false,
          "key": "resumed",
          "enabled": "notifications/enabled"
        }
      ]
    },
    {
      "name": "Shortcuts",
      "icon": "\ue312",
      "key": "shortcuts",
      "settings": [
        {
          "name": "Play / Pause",
          "tooltip": "Global hotkey that plays or pauses the current player.",
          "type": "shortcut",
          "default": "Ctrl+Alt+P",
          "key": "play"
        },
        {
          "name": "Next",
          "tooltip": "Global hotkey that skips to the next song.",
          "type": "shortcut",
          "default": "Ctrl+Alt+F",
          "key": "next"
        },
        {
          "name": "Previous",
          "tooltip": "Global hotkey that skips to the previous song.",
          "type": "shortcut",
          "default": "Ctrl+Alt+B",
          "key": "previous"
        },
        {
          "name": "Add to favorites",
          "tooltip": "Global hotkey that adds or removes the current song to or from your favorites.",
          "type": "shortcut",
          "default": "Ctrl+Alt+R",
          "key": "favorite"
        },
        {
          "name": "Restore window",
          "tooltip": "Global hotkey that restore the main window.",
          "type": "shortcut",
          "default": "Ctrl+Alt+W",
          "key": "restore-window"
        },
        {
          "name": "Reload page",
          "tooltip": "Reload current web page.",
          "type": "shortcut",
          "default": "F5",
          "key": "reload"
        },
        {
          "name": "Select service",
          "tooltip": "Show service selection page.",
          "type": "shortcut",
          "default": "F8",
          "key": "select-service"
        },
        {
          "name": "Next service",
          "tooltip": "Switch to the next open service.",
          "type": "shortcut",
          "default": "Ctrl+Tab",
          "key": "select-next-service"
        },
        {
          "name": "Previous service",
          "tooltip": "Switch to the previous open service.",
          "type": "shortcut",
          "default": "Ctrl+Shift+Tab",
          "key": "select-previous-service"
        },
        {
          "name": "Toggle notifications",
          "tooltip": "Quickly enable or disable notifications",
          "type": "shortcut",
          "default": "F9",
          "key": "notifications"
        },
        {
          "name": "Listening history",
          "tooltip": "Show or hide listening history",
          "type": "shortcut",
          "default": "F10",
          "key": "listening-history"
        },
        {
          "name": "Toggle ToolBar",
          "tooltip": "Show or hide main tool bar",
          "type": "shortcut",
          "default": "Ctrl+T",
          "key": "show-toolbar"
        },
        {
          "name": "Settings",
          "tooltip": "Show settings page",
          "type": "shortcut",
          "default": "F2",
          "key": "settings"
        },
        {
          "name": "Create Plugin",
          "tooltip": "Show the plugin creation wizard",
          "type": "shortcut",
          "default": "F3",
          "key": "create-plugin"
        },
        {
          "name": "Report Issue",
          "tooltip": "Report an issue",
          "type": "shortcut",
          "default": "F4",
          "key": "report-issue"
        },
        {
          "name": "Check for update",
          "tooltip": "Check for update",
          "type": "shortcut",
          "default": "Ctrl+U",
          "key": "check-for-update"
        },
        {
          "name": "About",
          "tooltip": "Show about page.",
          "type": "shortcut",
          "default": "F1",
          "key": "about"
        },
        {
          "name": "Quit",
          "tooltip": "Quit the application.",
          "type": "shortcut",
          "default": "Ctrl+Q",
          "key": "quit"
        }
      ]
    },
    {
      "name": "Privacy",
      "icon": "\ue32a",
      "key": "privacy",
      "settings": [
        {
          "name": "Enable listening history",
          "tooltip": "Enable listening history to keep track of the songs you listened to.",
          "type": "bool",
          "default": false,
          "key": "enable-listening-history"
        },
        {
          "name": "Listening history limit",
          "tooltip": "Specifies the limit of the listening history",
          "type": "time-limit",
          "default": 3,
          "key": "listening-history-limit",
          "enabled": "privacy/enable-listening-history"
        },
        {
          "name": "User agent",
          "tooltip": "Specifies the user agent string used by web views",
          "type": "user-agent",
          "default": "",
          "key": "user-agent"
        }
      ]
    },
    {
      "name": "",
      "icon": "",
      "key": "private",
      "settings": [
        {
          "name": "",
          "type": "bool",
          "default": true,
          "key": "show-close-to-tray-message",
          "enabled": "main/close-to-tray"
        },
        {
          "name": "",
          "type": "string",
          "default": "",
          "key": "current-service"
        },
        {
          "name": "",
          "type": "int",
          "default": 1280,
          "key": "window-width"
        },
        {
          "name": "",
          "type": "int",
          "default": 720,
          "key": "window-height"
        }
      ]
    }
  ]
}
